gtp5_ej5/jk_modificado_tb.vcd
$date
	Tue May  7 11:37:37 2024
$end
$version
	Icarus Verilog
$end
$timescale
	1ps
$end
$scope module jk_modificado_tb $end
$var wire 1 ! q_test $end
$var reg 1 " clk $end
$var reg 1 # j_test $end
$var reg 1 $ k_test $end
$var reg 1 % pr_test $end
$var reg 1 & prr_test $end
$var integer 32 ' i [31:0] $end
$scope module UUT $end
$var wire 1 # J $end
$var wire 1 $ K $end
$var wire 1 " clk $end
$var wire 1 & prereset $end
$var wire 1 % preset $end
$var wire 4 ( pr_prr_jk [3:0] $end
$var reg 1 ! q $end
$upscope $end
$upscope $end
$enddefinitions $end
#0
$dumpvars
bx (
b0 '
x&
x%
x$
x#
0"
x!
$end
#50000
1"
#100000
0"
#150000
1"
#200000
0"
b1xxx (
1%
#250000
1"
#300000
0"
#350000
1"
#400000
1!
0"
0&
b0xx (
0%
#450000
1"
#500000
0"
#550000
1"
#600000
0"
b1xx (
1&
#650000
1"
#700000
0"
#750000
1"
#800000
0"
0$
b0x0 (
0&
#850000
1"
#900000
0"
#950000
1"
#1000000
0"
b1 '
b10 (
1#
#1050000
1"
#1100000
0"
#1150000
1"
#1200000
0"
b1010 (
1%
#1250000
1"
#1300000
0"
#1350000
1"
#1400000
0"
b10 (
0%
#1450000
1"
#1500000
0"
#1550000
1"
#1600000
0"
b110 (
1&
#1650000
1"
#1700000
0"
#1750000
1"
#1800000
0"
b10 (
0&
#1850000
1"
#1900000
0"
#1950000
1"
#2000000
0"
b10 '
#2050000
1"
#2100000
0"
#2150000
1"
#2200000
0"
b1010 (
1%
#2250000
1"
#2300000
0"
#2350000
1"
#2400000
0"
b10 (
0%
#2450000
1"
#2500000
0"
#2550000
1"
#2600000
0"
b110 (
1&
#2650000
1"
#2700000
0"
#2750000
1"
#2800000
0"
b10 (
0&
#2850000
1"
#2900000
0"
#2950000
1"
#3000000
0"
b11 '
#3050000
1"
#3100000
0"
#3150000
1"
#3200000
0"
b1010 (
1%
#3250000
1"
#3300000
0"
#3350000
1"
#3400000
0"
b10 (
0%
#3450000
1"
#3500000
0"
#3550000
1"
#3600000
0"
b110 (
1&
#3650000
1"
#3700000
0"
#3750000
1"
#3800000
0"
b10 (
0&
#3850000
1"
#3900000
0"
#3950000
1"
#4000000
0"
b100 '
#4050000
1"
#4100000
0"
#4150000
1"
#4200000
0"
b1010 (
1%
#4250000
1"
#4300000
0"
#4350000
1"
#4400000
0"
b10 (
0%
#4450000
1"
#4500000
0"
#4550000
1"
#4600000
0"
b110 (
1&
#4650000
1"
#4700000
0"
#4750000
1"
#4800000
0"
b10 (
0&
#4850000
1"
#4900000
0"
#4950000
1"
#5000000
0"
b101 '
#5050000
1"
#5100000
0"
#5150000
1"
#5200000
0"
b1010 (
1%
#5250000
1"
#5300000
0"
#5350000
1"
#5400000
0"
b10 (
0%
#5450000
1"
#5500000
0"
#5550000
1"
#5600000
0"
b110 (
1&
#5650000
1"
#5700000
0"
#5750000
1"
#5800000
0"
b10 (
0&
#5850000
1"
#5900000
0"
#5950000
1"
#6000000
0"
b110 '
#6050000
1"
#6100000
0"
#6150000
1"
#6200000
0"
b1010 (
1%
#6250000
1"
#6300000
0"
#6350000
1"
#6400000
0"
b10 (
0%
#6450000
1"
#6500000
0"
#6550000
1"
#6600000
0"
b110 (
1&
#6650000
1"
#6700000
0"
#6750000
1"
#6800000
0"
b10 (
0&
#6850000
1"
#6900000
0"
#6950000
1"
#7000000
0"
b111 '
#7050000
1"
#7100000
0"
#7150000
1"
#7200000
0"
b1010 (
1%
#7250000
1"
#7300000
0"
#7350000
1"
#7400000
0"
b10 (
0%
#7450000
1"
#7500000
0"
#7550000
1"
#7600000
0"
b110 (
1&
#7650000
1"
#7700000
0"
#7750000
1"
#7800000
0"
b10 (
0&
#7850000
1"
#7900000
0"
#7950000
1"
#8000000
0"
b1000 '
#8050000
1"
#8100000
0"
#8150000
1"
#8200000
0"
b1010 (
1%
#8250000
1"
#8300000
0"
#8350000
1"
#8400000
0"
b10 (
0%
#8450000
1"
#8500000
0"
#8550000
1"
#8600000
0"
b110 (
1&
#8650000
1"
#8700000
0"
#8750000
1"
#8800000
0"
b10 (
0&
#8850000
1"
#8900000
0"
#8950000
1"
#9000000
0"
b1001 '
#9050000
1"
#9100000
0"
#9150000
1"
#9200000
0"
b1010 (
1%
#9250000
1"
#9300000
0"
#9350000
1"
#9400000
0"
b10 (
0%
#9450000
1"
#9500000
0"
#9550000
1"
#9600000
0"
b110 (
1&
#9650000
1"
#9700000
0"
#9750000
1"
#9800000
0"
b10 (
0&
#9850000
1"
#9900000
0"
#9950000
1"
#10000000
0"
b1010 '
#10050000
1"
#10100000
0"
#10150000
1"
#10200000
0"
b1010 (
1%
#10250000
1"
#10300000
0"
#10350000
1"
#10400000
0"
b10 (
0%
#10450000
1"
#10500000
0"
#10550000
1"
#10600000
0"
b110 (
1&
#10650000
1"
#10700000
0"
#10750000
1"
#10800000
0"
b10 (
0&
#10850000
1"
#10900000
0"
#10950000
1"
#11000000
0"
b1011 '
#11050000
1"
#11100000
0"
#11150000
1"
#11200000
0"
b1010 (
1%
#11250000
1"
#11300000
0"
#11350000
1"
#11400000
0"
b10 (
0%
#11450000
1"
#11500000
0"
#11550000
1"
#11600000
0"
b110 (
1&
#11650000
1"
#11700000
0"
#11750000
1"
#11800000
0"
b10 (
0&
#11850000
1"
#11900000
0"
#11950000
1"
#12000000
0"
b1100 '
#12050000
1"
#12100000
0"
#12150000
1"
#12200000
0"
b1010 (
1%
#12250000
1"
#12300000
0"
#12350000
1"
#12400000
0"
b10 (
0%
#12450000
1"
#12500000
0"
#12550000
1"
#12600000
0"
b110 (
1&
#12650000
1"
#12700000
0"
#12750000
1"
#12800000
0"
b10 (
0&
#12850000
1"
#12900000
0"
#12950000
1"
#13000000
0"
b1101 '
#13050000
1"
#13100000
0"
#13150000
1"
#13200000
0"
b1010 (
1%
#13250000
1"
#13300000
0"
#13350000
1"
#13400000
0"
b10 (
0%
#13450000
1"
#13500000
0"
#13550000
1"
#13600000
0"
b110 (
1&
#13650000
1"
#13700000
0"
#13750000
1"
#13800000
0"
b10 (
0&
#13850000
1"
#13900000
0"
#13950000
1"
#14000000
0"
b1110 '
#14050000
1"
#14100000
0"
#14150000
1"
#14200000
0"
b1010 (
1%
#14250000
1"
#14300000
0"
#14350000
1"
#14400000
0"
b10 (
0%
#14450000
1"
#14500000
0"
#14550000
1"
#14600000
0"
b110 (
1&
#14650000
1"
#14700000
0"
#14750000
1"
#14800000
0"
b10 (
0&
#14850000
1"
#14900000
0"
#14950000
1"
#15000000
0"
b1111 '
#15050000
1"
#15100000
0"
#15150000
1"
#15200000
0"
b1010 (
1%
#15250000
1"
#15300000
0"
#15350000
1"
#15400000
0"
b10 (
0%
#15450000
1"
#15500000
0"
#15550000
1"
#15600000
0"
b110 (
1&
#15650000
1"
#15700000
0"
#15750000
1"
#15800000
0"
b10 (
0&
#15850000
1"
#15900000
0"
#15950000
1"
#16000000
0"
b10000 '
