gtp6_ej1_0to7FSM/ceroToSevenFSM_tb.vcd
$date
	Sat Jun  1 10:05:18 2024
$end
$version
	Icarus Verilog
$end
$timescale
	1ps
$end
$scope module ceroToSevenFSM_tb $end
$var wire 1 ! z_test $end
$var reg 1 " clk_test $end
$var reg 1 # reset_test $end
$scope module UUT $end
$var wire 1 " clk $end
$var wire 1 # re $end
$var wire 4 $ Salida [3:0] $end
$var reg 4 % state_next [3:0] $end
$var reg 4 & state_reg [3:0] $end
$upscope $end
$upscope $end
$enddefinitions $end
#0
$dumpvars
bx &
bx %
bx $
x#
0"
x!
$end
#100000
0!
b1 %
b0 $
b0 &
1#
1"
#200000
0#
0"
#300000
1!
b10 %
b1 $
b1 &
1"
#400000
0"
#500000
0!
b11 %
b10 $
b10 &
1"
#600000
0"
#700000
1!
b100 %
b11 $
b11 &
1"
#800000
0"
#900000
0!
b101 %
b100 $
b100 &
1"
#1000000
0"
#1100000
1!
b110 %
b101 $
b101 &
1"
#1200000
0"
#1300000
0!
b111 %
b110 $
b110 &
1"
#1400000
0"
#1500000
1!
b0 %
b111 $
b111 &
1"
#1600000
0"
#1700000
0!
b1 %
b0 $
b0 &
1"
#1800000
0"
#1900000
1!
b10 %
b1 $
b1 &
1"
#2000000
0"
#2100000
0!
b11 %
b10 $
b10 &
1"
#2200000
0"
#2300000
1!
b100 %
b11 $
b11 &
1"
#2400000
0"
#2500000
0!
b101 %
b100 $
b100 &
1"
#2600000
0"
#2700000
1!
b110 %
b101 $
b101 &
1"
#2800000
0"
#2900000
0!
b111 %
b110 $
b110 &
1"
#3000000
0"
#3100000
1!
b0 %
b111 $
b111 &
1"
#3200000
0"
#3300000
0!
b1 %
b0 $
b0 &
1"
#3400000
0"
#3500000
1!
b10 %
b1 $
b1 &
1"
#3600000
0"
#3700000
0!
b11 %
b10 $
b10 &
1"
#3800000
0"
#3900000
1!
b100 %
b11 $
b11 &
1"
#4000000
0"
#4100000
0!
b101 %
b100 $
b100 &
1"
#4200000
0"
#4300000
1!
b110 %
b101 $
b101 &
1"
#4400000
0"
#4500000
0!
b111 %
b110 $
b110 &
1"
#4600000
0"
#4700000
1!
b0 %
b111 $
b111 &
1"
#4800000
0"
#4900000
0!
b1 %
b0 $
b0 &
1"
#5000000
0"
#5100000
1!
b10 %
b1 $
b1 &
1"
#5200000
0"
#5300000
0!
b11 %
b10 $
b10 &
1"
#5400000
0"
#5500000
1!
b100 %
b11 $
b11 &
1"
#5600000
0"
#5700000
0!
b101 %
b100 $
b100 &
1"
#5800000
0"
#5900000
1!
b110 %
b101 $
b101 &
1"
#6000000
0"
#6100000
0!
b111 %
b110 $
b110 &
1"
#6200000
0"
#6300000
1!
b0 %
b111 $
b111 &
1"
#6400000
0"
#6500000
0!
b1 %
b0 $
b0 &
1"
#6600000
0"
#6700000
1!
b10 %
b1 $
b1 &
1"
#6800000
0"
#6900000
0!
b11 %
b10 $
b10 &
1"
#7000000
0"
#7100000
1!
b100 %
b11 $
b11 &
1"
#7200000
0"
#7300000
0!
b101 %
b100 $
b100 &
1"
#7400000
0"
#7500000
1!
b110 %
b101 $
b101 &
1"
#7600000
0"
#7700000
0!
b111 %
b110 $
b110 &
1"
#7800000
0"
#7900000
1!
b0 %
b111 $
b111 &
1"
#8000000
0"
#8100000
0!
b1 %
b0 $
b0 &
1"
#8200000
0"
#8300000
1!
b10 %
b1 $
b1 &
1"
#8400000
0"
#8500000
0!
b11 %
b10 $
b10 &
1"
#8600000
0"
#8700000
1!
b100 %
b11 $
b11 &
1"
#8800000
0"
#8900000
0!
b101 %
b100 $
b100 &
1"
#9000000
0"
#9100000
1!
b110 %
b101 $
b101 &
1"
#9200000
0"
#9300000
0!
b111 %
b110 $
b110 &
1"
#9400000
0"
#9500000
1!
b0 %
b111 $
b111 &
1"
#9600000
0"
#9700000
0!
b1 %
b0 $
b0 &
1"
#9800000
0"
#9900000
1!
b10 %
b1 $
b1 &
1"
#10000000
0"
#10100000
0!
b11 %
b10 $
b10 &
1"
