gtp5_ej2_FF-D/FF-D_tb.vcd
$date
	Mon May 13 22:45:04 2024
$end
$version
	Icarus Verilog
$end
$timescale
	1ps
$end
$scope module FF_D_tb $end
$var wire 1 ! q_test $end
$var reg 1 " clk $end
$var reg 1 # data_test $end
$var integer 32 $ i [31:0] $end
$scope module UUT $end
$var wire 1 " clk $end
$var wire 1 # data $end
$var wire 2 % concat [1:0] $end
$var reg 1 ! q $end
$upscope $end
$upscope $end
$enddefinitions $end
#0
$dumpvars
b0x %
b0 $
x#
0"
0!
$end
#50000
x!
b1x %
1"
#100000
0!
b0x %
0"
#150000
x!
b1x %
1"
#200000
1!
0"
b1 %
1#
#250000
b11 %
1"
#300000
b1 %
0"
#350000
b11 %
1"
#400000
0!
0"
b0 %
0#
#450000
b10 %
1"
#500000
b0 %
0"
#550000
b10 %
1"
#600000
1!
0"
b1 $
b1 %
1#
#650000
b11 %
1"
#700000
b1 %
0"
#750000
b11 %
1"
#800000
b1 %
0"
#850000
b11 %
1"
#900000
b1 %
0"
#950000
b11 %
1"
#1000000
0!
0"
b0 %
0#
#1050000
b10 %
1"
#1100000
b0 %
0"
#1150000
b10 %
1"
#1200000
1!
0"
b10 $
b1 %
1#
#1250000
b11 %
1"
#1300000
b1 %
0"
#1350000
b11 %
1"
#1400000
b1 %
0"
#1450000
b11 %
1"
#1500000
b1 %
0"
#1550000
b11 %
1"
#1600000
0!
0"
b0 %
0#
#1650000
b10 %
1"
#1700000
b0 %
0"
#1750000
b10 %
1"
#1800000
1!
0"
b11 $
b1 %
1#
#1850000
b11 %
1"
#1900000
b1 %
0"
#1950000
b11 %
1"
#2000000
b1 %
0"
#2050000
b11 %
1"
#2100000
b1 %
0"
#2150000
b11 %
1"
#2200000
0!
0"
b0 %
0#
#2250000
b10 %
1"
#2300000
b0 %
0"
#2350000
b10 %
1"
#2400000
1!
0"
b100 $
b1 %
1#
#2450000
b11 %
1"
#2500000
b1 %
0"
#2550000
b11 %
1"
#2600000
b1 %
0"
#2650000
b11 %
1"
#2700000
b1 %
0"
#2750000
b11 %
1"
#2800000
0!
0"
b0 %
0#
#2850000
b10 %
1"
#2900000
b0 %
0"
#2950000
b10 %
1"
#3000000
1!
0"
b101 $
b1 %
1#
#3050000
b11 %
1"
#3100000
b1 %
0"
#3150000
b11 %
1"
#3200000
b1 %
0"
#3250000
b11 %
1"
#3300000
b1 %
0"
#3350000
b11 %
1"
#3400000
0!
0"
b0 %
0#
#3450000
b10 %
1"
#3500000
b0 %
0"
#3550000
b10 %
1"
#3600000
1!
0"
b110 $
b1 %
1#
#3650000
b11 %
1"
#3700000
b1 %
0"
#3750000
b11 %
1"
#3800000
b1 %
0"
#3850000
b11 %
1"
#3900000
b1 %
0"
#3950000
b11 %
1"
#4000000
0!
0"
b0 %
0#
#4050000
b10 %
1"
#4100000
b0 %
0"
#4150000
b10 %
1"
#4200000
1!
0"
b111 $
b1 %
1#
#4250000
b11 %
1"
#4300000
b1 %
0"
#4350000
b11 %
1"
#4400000
b1 %
0"
#4450000
b11 %
1"
#4500000
b1 %
0"
#4550000
b11 %
1"
#4600000
0!
0"
b0 %
0#
#4650000
b10 %
1"
#4700000
b0 %
0"
#4750000
b10 %
1"
#4800000
1!
0"
b1000 $
b1 %
1#
#4850000
b11 %
1"
#4900000
b1 %
0"
#4950000
b11 %
1"
#5000000
b1 %
0"
#5050000
b11 %
1"
#5100000
b1 %
0"
#5150000
b11 %
1"
#5200000
0!
0"
b0 %
0#
#5250000
b10 %
1"
#5300000
b0 %
0"
#5350000
b10 %
1"
#5400000
1!
0"
b1001 $
b1 %
1#
#5450000
b11 %
1"
#5500000
b1 %
0"
#5550000
b11 %
1"
#5600000
b1 %
0"
#5650000
b11 %
1"
#5700000
b1 %
0"
#5750000
b11 %
1"
#5800000
0!
0"
b0 %
0#
#5850000
b10 %
1"
#5900000
b0 %
0"
#5950000
b10 %
1"
#6000000
1!
0"
b1010 $
b1 %
1#
#6050000
b11 %
1"
#6100000
b1 %
0"
#6150000
b11 %
1"
#6200000
b1 %
0"
#6250000
b11 %
1"
#6300000
b1 %
0"
#6350000
b11 %
1"
#6400000
0!
0"
b0 %
0#
#6450000
b10 %
1"
#6500000
b0 %
0"
#6550000
b10 %
1"
#6600000
1!
0"
b1011 $
b1 %
1#
#6650000
b11 %
1"
#6700000
b1 %
0"
#6750000
b11 %
1"
#6800000
b1 %
0"
#6850000
b11 %
1"
#6900000
b1 %
0"
#6950000
b11 %
1"
#7000000
0!
0"
b0 %
0#
#7050000
b10 %
1"
#7100000
b0 %
0"
#7150000
b10 %
1"
#7200000
1!
0"
b1100 $
b1 %
1#
#7250000
b11 %
1"
#7300000
b1 %
0"
#7350000
b11 %
1"
#7400000
b1 %
0"
#7450000
b11 %
1"
#7500000
b1 %
0"
#7550000
b11 %
1"
#7600000
0!
0"
b0 %
0#
#7650000
b10 %
1"
#7700000
b0 %
0"
#7750000
b10 %
1"
#7800000
1!
0"
b1101 $
b1 %
1#
#7850000
b11 %
1"
#7900000
b1 %
0"
#7950000
b11 %
1"
#8000000
b1 %
0"
#8050000
b11 %
1"
#8100000
b1 %
0"
#8150000
b11 %
1"
#8200000
0!
0"
b0 %
0#
#8250000
b10 %
1"
#8300000
b0 %
0"
#8350000
b10 %
1"
#8400000
1!
0"
b1110 $
b1 %
1#
#8450000
b11 %
1"
#8500000
b1 %
0"
#8550000
b11 %
1"
#8600000
b1 %
0"
#8650000
b11 %
1"
#8700000
b1 %
0"
#8750000
b11 %
1"
#8800000
0!
0"
b0 %
0#
#8850000
b10 %
1"
#8900000
b0 %
0"
#8950000
b10 %
1"
#9000000
1!
0"
b1111 $
b1 %
1#
#9050000
b11 %
1"
#9100000
b1 %
0"
#9150000
b11 %
1"
#9200000
b1 %
0"
#9250000
b11 %
1"
#9300000
b1 %
0"
#9350000
b11 %
1"
#9400000
0!
0"
b0 %
0#
#9450000
b10 %
1"
#9500000
b0 %
0"
#9550000
b10 %
1"
#9600000
1!
0"
b10000 $
b1 %
1#
#9650000
b11 %
1"
#9700000
b1 %
0"
#9750000
b11 %
1"
#9800000
b1 %
0"
#9850000
b11 %
1"
#9900000
b1 %
0"
#9950000
b11 %
1"
#10000000
b1 %
0"
#10050000
b11 %
1"
#10100000
b1 %
0"
#10150000
b11 %
1"
#10200000
b1 %
0"
#10250000
b11 %
1"
#10300000
b1 %
0"
#10350000
b11 %
1"
#10400000
b1 %
0"
#10450000
b11 %
1"
#10500000
b1 %
0"
#10550000
b11 %
1"
#10600000
b1 %
0"
